\relax 
\providecommand\hyper@newdestlabel[2]{}
\citation{survey}
\@writefile{toc}{\contentsline {chapter}{\numberline {2}Backgrounds}{5}{chapter.2}}
\@writefile{lof}{\addvspace {10\p@ }}
\@writefile{lot}{\addvspace {10\p@ }}
\@writefile{toc}{\contentsline {section}{\numberline {2.1}Process Variation}{5}{section.2.1}}
\@writefile{toc}{\contentsline {subsection}{\numberline {2.1.1}A Brief Introduction}{5}{subsection.2.1.1}}
\@writefile{toc}{\contentsline {subsection}{\numberline {2.1.2}Classification of Variations}{5}{subsection.2.1.2}}
\citation{survey}
\citation{survey}
\citation{survey}
\citation{survey}
\@writefile{lof}{\contentsline {figure}{\numberline {2.1}{\ignorespaces Types of process variations}}{7}{figure.caption.6}}
\providecommand*\caption@xref[2]{\@setref\relax\@undefined{#1}}
\newlabel{spatial}{{2.1}{7}{Types of process variations}{figure.caption.6}{}}
\citation{nbti0}
\citation{nbti1}
\citation{nbti2}
\citation{pbti0}
\citation{pbti1}
\citation{hci0}
\citation{hci1}
\@writefile{lof}{\contentsline {figure}{\numberline {2.2}{\ignorespaces Types of temporal variations}}{8}{figure.caption.8}}
\newlabel{temporal}{{2.2}{8}{Types of temporal variations}{figure.caption.8}{}}
\citation{tddb0}
\citation{tddb1}
\citation{electromigration}
\citation{survey}
\@writefile{toc}{\contentsline {subsection}{\numberline {2.1.3}Impact on SRAM}{9}{subsection.2.1.3}}
\citation{survey}
\citation{survey}
\citation{survey}
\citation{survey}
\@writefile{lof}{\contentsline {figure}{\numberline {2.3}{\ignorespaces A pseudoread scenario}}{10}{figure.caption.10}}
\newlabel{pseudoread}{{2.3}{10}{A pseudoread scenario}{figure.caption.10}{}}
\citation{survey}
\citation{survey}
\citation{seu1}
\citation{seu1}
\@writefile{lof}{\contentsline {figure}{\numberline {2.4}{\ignorespaces Temporal memory degradation}}{11}{figure.caption.12}}
\newlabel{degradation}{{2.4}{11}{Temporal memory degradation}{figure.caption.12}{}}
\@writefile{toc}{\contentsline {section}{\numberline {2.2}Soft Error}{11}{section.2.2}}
\citation{seu0}
\citation{seu1}
\citation{avf}
\@writefile{toc}{\contentsline {subsection}{\numberline {2.2.1}Single Event Upset (SEU)}{12}{subsection.2.2.1}}
\citation{ser0}
\citation{ser0}
\citation{ser0}
\citation{ser0}
\citation{ser0}
\citation{avf}
\@writefile{toc}{\contentsline {subsection}{\numberline {2.2.2}Soft Error Rate (SER)}{13}{subsection.2.2.2}}
\@writefile{lof}{\contentsline {figure}{\numberline {2.5}{\ignorespaces Beam energy spectrum compared to Sea level(left); Experimental setup for SER measurements(right)}}{14}{figure.caption.13}}
\newlabel{sea_level}{{2.5}{14}{Beam energy spectrum compared to Sea level(left); Experimental setup for SER measurements(right)}{figure.caption.13}{}}
\@writefile{lof}{\contentsline {figure}{\numberline {2.6}{\ignorespaces Technology scaling of neutron SER in SRAM}}{14}{figure.caption.14}}
\newlabel{ser_scaling}{{2.6}{14}{Technology scaling of neutron SER in SRAM}{figure.caption.14}{}}
\@setckpt{Chapter2/chapter2}{
\setcounter{page}{15}
\setcounter{equation}{0}
\setcounter{enumi}{0}
\setcounter{enumii}{0}
\setcounter{enumiii}{0}
\setcounter{enumiv}{0}
\setcounter{footnote}{0}
\setcounter{mpfootnote}{0}
\setcounter{part}{0}
\setcounter{chapter}{2}
\setcounter{section}{2}
\setcounter{subsection}{2}
\setcounter{subsubsection}{0}
\setcounter{paragraph}{0}
\setcounter{subparagraph}{0}
\setcounter{figure}{6}
\setcounter{table}{0}
\setcounter{@pps}{0}
\setcounter{@ppsavesec}{0}
\setcounter{@ppsaveapp}{0}
\setcounter{NAT@ctr}{0}
\setcounter{Item}{0}
\setcounter{Hfootnote}{0}
\setcounter{bookmark@seq@number}{15}
\setcounter{ContinuedFloat}{0}
\setcounter{subfigure}{0}
\setcounter{subtable}{0}
\setcounter{parentequation}{0}
\setcounter{section@level}{2}
}
