\relax 
\providecommand\hyper@newdestlabel[2]{}
\providecommand\HyperFirstAtBeginDocument{\AtBeginDocument}
\HyperFirstAtBeginDocument{\ifx\hyper@anchor\@undefined
\global\let\oldcontentsline\contentsline
\gdef\contentsline#1#2#3#4{\oldcontentsline{#1}{#2}{#3}}
\global\let\oldnewlabel\newlabel
\gdef\newlabel#1#2{\newlabelxx{#1}#2}
\gdef\newlabelxx#1#2#3#4#5#6{\oldnewlabel{#1}{{#2}{#3}}}
\AtEndDocument{\ifx\hyper@anchor\@undefined
\let\contentsline\oldcontentsline
\let\newlabel\oldnewlabel
\fi}
\fi}
\global\let\hyper@last\relax 
\gdef\HyperFirstAtBeginDocument#1{#1}
\providecommand\HyField@AuxAddToFields[1]{}
\providecommand\HyField@AuxAddToCoFields[2]{}
\@writefile{toc}{\thispagestyle {empty}}
\@input{Abstract/abstract.aux}
\@writefile{toc}{\contentsline {chapter}{Table of contents}{v}{chapter*.2}}
\@writefile{toc}{\contentsline {chapter}{List of figures}{vii}{chapter*.3}}
\@writefile{toc}{\contentsline {chapter}{List of tables}{ix}{chapter*.4}}
\@input{Chapter1/chapter1.aux}
\@input{Chapter2/chapter2.aux}
\@input{Chapter3/chapter3.aux}
\@input{Chapter4/chapter4.aux}
\@input{Chapter5/chapter5.aux}
\bibstyle{apalike}
\bibdata{References/references.bib}
\bibcite{hci1}{{1}{1995}{{A.Abramo et~al.}}{{}}}
\bibcite{nbti0}{{2}{1967}{{B.E.Deal et~al.}}{{}}}
\bibcite{nbti1}{{3}{1991}{{C.E.Blat et~al.}}{{}}}
\bibcite{spec_website}{{4}{2011}{{Corporation}}{{}}}
\bibcite{pbti1}{{5}{2005}{{Crupi et~al.}}{{}}}
\bibcite{antonio00}{{6}{2000}{{Cruz et~al.}}{{}}}
\bibcite{seu1}{{7}{2011}{{Gaillard}}{{}}}
\bibcite{survey}{{8}{2010}{{Ghosh and Roy}}{{}}}
\bibcite{jaksic}{{9}{2013}{{Jaksic and Canal}}{{}}}
\bibcite{spec_art}{{10}{2006}{{L.Henning}}{{}}}
\bibcite{mcpat}{{11}{2009}{{Li et~al.}}{{}}}
\bibcite{tddb1}{{12}{2002}{{M.A.Alam et~al.}}{{}}}
\bibcite{nbti2}{{13}{2004}{{M.F.Li et~al.}}{{}}}
\bibcite{tddb0}{{14}{2000}{{M.T.Quddus et~al.}}{{}}}
\@writefile{toc}{\contentsline {chapter}{References}{47}{chapter*.41}}
\bibcite{avf}{{15}{2003}{{Mukherjee et~al.}}{{}}}
\bibcite{spec_profile}{{16}{2008}{{Nair and John}}{{}}}
\bibcite{seu0}{{17}{2006}{{Naseer et~al.}}{{}}}
\bibcite{marssx86}{{18}{2011}{{Patel et~al.}}{{}}}
\bibcite{pinpoints}{{19}{2004}{{Patil et~al.}}{{}}}
\bibcite{ser0}{{20}{2003}{{P.Hamcha et~al.}}{{}}}
\bibcite{simpoint}{{21}{2002}{{Sherwood et~al.}}{{}}}
\bibcite{pbti0}{{22}{2006}{{S.Jafar et~al.}}{{}}}
\bibcite{electromigration}{{23}{2002}{{S.Sirichotiyakul et~al.}}{{}}}
\bibcite{hci0}{{24}{1979}{{T.H.Ning et~al.}}{{}}}
