\relax 
\citation{survey}
\citation{antonio00}
\citation{antonio00}
\@writefile{toc}{\contentsline {section}{\numberline {1}Introduction}{1}}
\newlabel{sec:introduction}{{1}{1}}
\@writefile{lof}{\contentsline {figure}{\numberline {1}{\ignorespaces Performance degradation with the decrease of the register file size (left: INT, right: FP)\relax }}{1}}
\providecommand*\caption@xref[2]{\@setref\relax\@undefined{#1}}
\newlabel{original}{{1}{1}}
\@writefile{toc}{\contentsline {section}{\numberline {2}Register File Cache Architecture}{1}}
\newlabel{sec:rfc_architecture}{{2}{1}}
\citation{antonio00}
\citation{marssx86}
\citation{pinpoints}
\citation{simpoint}
\citation{spec_profile}
\@writefile{lof}{\contentsline {figure}{\numberline {2}{\ignorespaces A two-level Register File Cache architecture\relax }}{2}}
\newlabel{rfc_diagram}{{2}{2}}
\@writefile{toc}{\contentsline {section}{\numberline {3}Performance Evaluation}{2}}
\newlabel{sec:performance}{{3}{2}}
\@writefile{toc}{\contentsline {subsection}{\numberline {3.1}Experimental Environment}{2}}
\@writefile{lot}{\contentsline {table}{\numberline {1}{\ignorespaces Microarchitecture parameters used for simulation\relax }}{2}}
\newlabel{table:parameters}{{1}{2}}
\@writefile{toc}{\contentsline {subsection}{\numberline {3.2}Impact of process variations}{2}}
\@writefile{lof}{\contentsline {figure}{\numberline {3}{\ignorespaces H-mean of the performance of Spec 2006 INT (left) and FP (right) benchmarks on different register file configurations\relax }}{2}}
\newlabel{rf_rfc}{{3}{2}}
\citation{mcpat}
\@writefile{toc}{\contentsline {subsection}{\numberline {3.3}Impact of the register file cache size}{3}}
\@writefile{lof}{\contentsline {figure}{\numberline {4}{\ignorespaces Performance of various register file cache sizes (left: INT, right: FP)\relax }}{3}}
\newlabel{cache_size}{{4}{3}}
\@writefile{toc}{\contentsline {subsection}{\numberline {3.4}Usage of the buses}{3}}
\@writefile{lof}{\contentsline {figure}{\numberline {5}{\ignorespaces Impact on performance of the number of buses between the RF and the RF Cache (left: INT, right: FP)\relax }}{3}}
\newlabel{bus}{{5}{3}}
\@writefile{lof}{\contentsline {figure}{\numberline {6}{\ignorespaces Bus usage with various bus numbers (left: INT, right: FP)\relax }}{3}}
\newlabel{ports_usage}{{6}{3}}
\@writefile{toc}{\contentsline {subsection}{\numberline {3.5}Usage of the bypass network}{3}}
\@writefile{lof}{\contentsline {figure}{\numberline {7}{\ignorespaces Bypass usage with various bus numbers (left: INT, right: FP)\relax }}{3}}
\newlabel{bypass_usage}{{7}{3}}
\@writefile{toc}{\contentsline {section}{\numberline {4}Power and Area Evaluation}{3}}
\newlabel{sec:power_area}{{4}{3}}
\citation{customization}
\citation{rfc}
\bibstyle{IEEEtran}
\bibdata{rfc_cal_bib}
\bibcite{survey}{1}
\bibcite{antonio00}{2}
\bibcite{marssx86}{3}
\bibcite{pinpoints}{4}
\bibcite{simpoint}{5}
\bibcite{spec_profile}{6}
\bibcite{mcpat}{7}
\bibcite{customization}{8}
\bibcite{rfc}{9}
\@writefile{lof}{\contentsline {figure}{\numberline {8}{\ignorespaces Area of the processor and register file with/without register file cache\relax }}{4}}
\newlabel{area}{{8}{4}}
\@writefile{lof}{\contentsline {figure}{\numberline {9}{\ignorespaces The Energy-Delay Square metrics\relax }}{4}}
\newlabel{energy_delay}{{9}{4}}
\@writefile{toc}{\contentsline {section}{\numberline {5}Related Work}{4}}
\newlabel{sec:related_works}{{5}{4}}
\@writefile{toc}{\contentsline {section}{\numberline {6}Conclusion}{4}}
\newlabel{sec:conclusion}{{6}{4}}
\@writefile{toc}{\contentsline {section}{References}{4}}
