\relax 
\providecommand\hyper@newdestlabel[2]{}
\@writefile{toc}{\contentsline {chapter}{\numberline {3}The Register File Cache (RFC) Architecture}{15}{chapter.3}}
\@writefile{lof}{\addvspace {10\p@ }}
\@writefile{lot}{\addvspace {10\p@ }}
\@writefile{toc}{\contentsline {section}{\numberline {3.1}Impact of A Register File}{15}{section.3.1}}
\citation{antonio00}
\@writefile{lof}{\contentsline {figure}{\numberline {3.1}{\ignorespaces Performance with various register file size\relax }}{16}{figure.caption.15}}
\newlabel{physreg_comparison}{{3.1}{16}{Performance with various register file size\relax }{figure.caption.15}{}}
\@writefile{toc}{\contentsline {section}{\numberline {3.2}The RFC Architecture}{16}{section.3.2}}
\@writefile{lof}{\contentsline {figure}{\numberline {3.2}{\ignorespaces Performance drop of a 2-cycle 1-bypass level register file compare to an ideal 1-cycle register file\relax }}{17}{figure.caption.16}}
\newlabel{2cycle}{{3.2}{17}{Performance drop of a 2-cycle 1-bypass level register file compare to an ideal 1-cycle register file\relax }{figure.caption.16}{}}
\citation{antonio00}
\citation{antonio00}
\citation{antonio00}
\@writefile{lof}{\contentsline {figure}{\numberline {3.3}{\ignorespaces A two-level Register File Cache architecture}}{18}{figure.caption.17}}
\newlabel{rfc_diagram}{{3.3}{18}{A two-level Register File Cache architecture}{figure.caption.17}{}}
\@setckpt{Chapter3/chapter3}{
\setcounter{page}{20}
\setcounter{equation}{0}
\setcounter{enumi}{0}
\setcounter{enumii}{0}
\setcounter{enumiii}{0}
\setcounter{enumiv}{0}
\setcounter{footnote}{0}
\setcounter{mpfootnote}{0}
\setcounter{part}{0}
\setcounter{chapter}{3}
\setcounter{section}{2}
\setcounter{subsection}{0}
\setcounter{subsubsection}{0}
\setcounter{paragraph}{0}
\setcounter{subparagraph}{0}
\setcounter{figure}{3}
\setcounter{table}{0}
\setcounter{@pps}{0}
\setcounter{@ppsavesec}{0}
\setcounter{@ppsaveapp}{0}
\setcounter{NAT@ctr}{0}
\setcounter{Item}{0}
\setcounter{Hfootnote}{0}
\setcounter{bookmark@seq@number}{18}
\setcounter{ContinuedFloat}{0}
\setcounter{subfigure}{0}
\setcounter{subtable}{0}
\setcounter{parentequation}{0}
\setcounter{section@level}{1}
}
