\relax 
\providecommand\hyper@newdestlabel[2]{}
\@writefile{toc}{\contentsline {chapter}{Appendix \numberline {B}Installing the CUED class file}{19}{Appendix.a.B}}
\@writefile{lof}{\addvspace {10\p@ }}
\@writefile{lot}{\addvspace {10\p@ }}
\@setckpt{Appendix2/appendix2}{
\setcounter{page}{20}
\setcounter{equation}{0}
\setcounter{enumi}{6}
\setcounter{enumii}{2}
\setcounter{enumiii}{0}
\setcounter{enumiv}{0}
\setcounter{footnote}{0}
\setcounter{mpfootnote}{0}
\setcounter{part}{0}
\setcounter{chapter}{2}
\setcounter{section}{0}
\setcounter{subsection}{0}
\setcounter{subsubsection}{0}
\setcounter{paragraph}{0}
\setcounter{subparagraph}{0}
\setcounter{figure}{0}
\setcounter{table}{0}
\setcounter{@pps}{1}
\setcounter{@ppsavesec}{3}
\setcounter{@ppsaveapp}{0}
\setcounter{NAT@ctr}{2}
\setcounter{Item}{33}
\setcounter{Hfootnote}{1}
\setcounter{bookmark@seq@number}{19}
\setcounter{ContinuedFloat}{0}
\setcounter{subfigure}{3}
\setcounter{subtable}{0}
\setcounter{parentequation}{0}
\setcounter{section@level}{1}
}
