\relax 
\providecommand\hyper@newdestlabel[2]{}
\citation{marssx86}
\citation{marssx86}
\citation{marssx86}
\citation{marssx86}
\citation{marssx86}
\citation{antonio00}
\@writefile{toc}{\contentsline {chapter}{\numberline {4}Experiments and Evaluations}{21}{chapter.4}}
\@writefile{lof}{\addvspace {10\p@ }}
\@writefile{lot}{\addvspace {10\p@ }}
\@writefile{toc}{\contentsline {section}{\numberline {4.1}Experiment Platform}{21}{section.4.1}}
\newlabel{sec:performance}{{4.1}{21}{Experiment Platform}{section.4.1}{}}
\@writefile{lof}{\contentsline {figure}{\numberline {4.1}{\ignorespaces The block diagram of the Marssx86 structure}}{21}{figure.caption.18}}
\newlabel{marss_diagram}{{4.1}{21}{The block diagram of the Marssx86 structure}{figure.caption.18}{}}
\citation{spec_website}
\citation{spec_art}
\citation{spec_profile}
\citation{pinpoints}
\citation{simpoint}
\citation{spec_profile}
\@writefile{lof}{\contentsline {figure}{\numberline {4.2}{\ignorespaces Pipeline stages of the out-of-order core model}}{22}{figure.caption.19}}
\newlabel{marss_pipeline}{{4.2}{22}{Pipeline stages of the out-of-order core model}{figure.caption.19}{}}
\@writefile{lot}{\contentsline {table}{\numberline {4.1}{\ignorespaces Microarchitecture parameters used for simulation\relax }}{23}{table.caption.20}}
\newlabel{table:parameters}{{4.1}{23}{Microarchitecture parameters used for simulation\relax }{table.caption.20}{}}
\@writefile{toc}{\contentsline {section}{\numberline {4.2}Impact of Process Variation}{23}{section.4.2}}
\@writefile{lof}{\contentsline {figure}{\numberline {4.3}{\ignorespaces We assume a strong register file cache with a weak register file\relax }}{24}{figure.caption.21}}
\newlabel{rf_rfc}{{4.3}{24}{We assume a strong register file cache with a weak register file\relax }{figure.caption.21}{}}
\@writefile{toc}{\contentsline {section}{\numberline {4.3}Impact of the RFC size}{25}{section.4.3}}
\@writefile{lof}{\contentsline {figure}{\numberline {4.4}{\ignorespaces Performance of various register file cache sizes\relax }}{26}{figure.caption.22}}
\newlabel{cache_size}{{4.4}{26}{Performance of various register file cache sizes\relax }{figure.caption.22}{}}
\@writefile{toc}{\contentsline {section}{\numberline {4.4}Usage of The Buses}{27}{section.4.4}}
\@writefile{lof}{\contentsline {figure}{\numberline {4.5}{\ignorespaces Impact on performance of the number of buses between the RF and the RF Cache\relax }}{27}{figure.caption.23}}
\newlabel{bus0}{{4.5}{27}{Impact on performance of the number of buses between the RF and the RF Cache\relax }{figure.caption.23}{}}
\@writefile{lof}{\contentsline {figure}{\numberline {4.6}{\ignorespaces The buses in-between have minor impact on performance (continue.)\relax }}{28}{figure.caption.24}}
\newlabel{bus}{{4.6}{28}{The buses in-between have minor impact on performance (continue.)\relax }{figure.caption.24}{}}
\@writefile{lof}{\contentsline {figure}{\numberline {4.7}{\ignorespaces Bus usage with various bus numbers\relax }}{29}{figure.caption.25}}
\newlabel{ports_usage}{{4.7}{29}{Bus usage with various bus numbers\relax }{figure.caption.25}{}}
\@writefile{toc}{\contentsline {section}{\numberline {4.5}Usage of The Bypass Network}{30}{section.4.5}}
\@writefile{lof}{\contentsline {figure}{\numberline {4.8}{\ignorespaces Bypass usage with various bus numbers\relax }}{31}{figure.caption.26}}
\newlabel{bypass_usage}{{4.8}{31}{Bypass usage with various bus numbers\relax }{figure.caption.26}{}}
\@writefile{lot}{\contentsline {table}{\numberline {4.2}{\ignorespaces Typical $\mu $ops classified by the number of operands\relax }}{32}{table.caption.27}}
\newlabel{table:uops}{{4.2}{32}{Typical $\mu $ops classified by the number of operands\relax }{table.caption.27}{}}
\@writefile{lof}{\contentsline {figure}{\numberline {4.9}{\ignorespaces Distribution of $\mu $ops with different numbers of source operands\relax }}{32}{figure.caption.28}}
\newlabel{uops_usage}{{4.9}{32}{Distribution of $\mu $ops with different numbers of source operands\relax }{figure.caption.28}{}}
\citation{mcpat}
\@writefile{lof}{\contentsline {figure}{\numberline {4.10}{\ignorespaces The distribution of sources where 2-source-operand $\mu $ops get their source operand values\relax }}{33}{figure.caption.29}}
\newlabel{uops_2operands}{{4.10}{33}{The distribution of sources where 2-source-operand $\mu $ops get their source operand values\relax }{figure.caption.29}{}}
\@writefile{lof}{\contentsline {figure}{\numberline {4.11}{\ignorespaces The percentage of $\mu $ops that could not be issued due to the absence of their operands values in the register file cache\relax }}{34}{figure.caption.30}}
\newlabel{iq_wait}{{4.11}{34}{The percentage of $\mu $ops that could not be issued due to the absence of their operands values in the register file cache\relax }{figure.caption.30}{}}
\@writefile{toc}{\contentsline {section}{\numberline {4.6}Power and Area Evaluation}{34}{section.4.6}}
\newlabel{sec:power_area}{{4.6}{34}{Power and Area Evaluation}{section.4.6}{}}
\@writefile{lof}{\contentsline {figure}{\numberline {4.12}{\ignorespaces Area of the processor and register file with/without register file cache\relax }}{35}{figure.caption.31}}
\newlabel{area}{{4.12}{35}{Area of the processor and register file with/without register file cache\relax }{figure.caption.31}{}}
\citation{avf}
\citation{avf}
\citation{avf}
\@writefile{lof}{\contentsline {figure}{\numberline {4.13}{\ignorespaces The Energy-Delay Square metrics\relax }}{36}{figure.caption.32}}
\newlabel{energy_delay}{{4.13}{36}{The Energy-Delay Square metrics\relax }{figure.caption.32}{}}
\@writefile{toc}{\contentsline {section}{\numberline {4.7}Architectural Vulnerability Factor (AVF) of the RFC}{36}{section.4.7}}
\@writefile{toc}{\contentsline {subsection}{\numberline {4.7.1}Architectural Vulnerability Factor (AVF)}{36}{subsection.4.7.1}}
\citation{avf}
\citation{avf}
\@writefile{toc}{\contentsline {subsection}{\numberline {4.7.2}AVF for the RFC}{37}{subsection.4.7.2}}
\@writefile{lof}{\contentsline {figure}{\numberline {4.14}{\ignorespaces The AVF of a monolithic 1-cycle register file\relax }}{39}{figure.caption.36}}
\newlabel{avf_orig}{{4.14}{39}{The AVF of a monolithic 1-cycle register file\relax }{figure.caption.36}{}}
\@writefile{lof}{\contentsline {figure}{\numberline {4.15}{\ignorespaces The AVF of the RFCs\relax }}{40}{figure.caption.37}}
\newlabel{avf_rfc}{{4.15}{40}{The AVF of the RFCs\relax }{figure.caption.37}{}}
\@writefile{toc}{\contentsline {subsection}{\numberline {4.7.3}Soft Error Handling By The RFC}{40}{subsection.4.7.3}}
\@writefile{lof}{\contentsline {figure}{\numberline {4.16}{\ignorespaces Performance of 3 buses without SEUs\relax }}{41}{figure.caption.38}}
\newlabel{rfc_3bus}{{4.16}{41}{Performance of 3 buses without SEUs\relax }{figure.caption.38}{}}
\@writefile{lof}{\contentsline {figure}{\numberline {4.17}{\ignorespaces Performance of 3 buses with SEUs\relax }}{42}{figure.caption.39}}
\newlabel{rfc_3bus_seu}{{4.17}{42}{Performance of 3 buses with SEUs\relax }{figure.caption.39}{}}
\@writefile{lof}{\contentsline {figure}{\numberline {4.18}{\ignorespaces RFC Read after SEUs\relax }}{43}{figure.caption.40}}
\newlabel{rfc_seu}{{4.18}{43}{RFC Read after SEUs\relax }{figure.caption.40}{}}
\@setckpt{Chapter4/chapter4}{
\setcounter{page}{44}
\setcounter{equation}{0}
\setcounter{enumi}{0}
\setcounter{enumii}{0}
\setcounter{enumiii}{0}
\setcounter{enumiv}{0}
\setcounter{footnote}{0}
\setcounter{mpfootnote}{0}
\setcounter{part}{0}
\setcounter{chapter}{4}
\setcounter{section}{7}
\setcounter{subsection}{3}
\setcounter{subsubsection}{0}
\setcounter{paragraph}{0}
\setcounter{subparagraph}{0}
\setcounter{figure}{18}
\setcounter{table}{2}
\setcounter{@pps}{0}
\setcounter{@ppsavesec}{0}
\setcounter{@ppsaveapp}{0}
\setcounter{NAT@ctr}{0}
\setcounter{Item}{0}
\setcounter{Hfootnote}{0}
\setcounter{bookmark@seq@number}{29}
\setcounter{ContinuedFloat}{0}
\setcounter{subfigure}{0}
\setcounter{subtable}{0}
\setcounter{parentequation}{0}
\setcounter{section@level}{2}
}
