\relax 
\citation{survey}
\citation{jaksic}
\@writefile{toc}{\contentsline {section}{\numberline {1}Introduction}{1}}
\newlabel{sec:introduction}{{1}{1}}
\citation{antonio00}
\newlabel{physreg_comparison}{{1}{2}}
\@writefile{toc}{\contentsline {section}{\numberline {2}Register File Cache Architecture}{2}}
\newlabel{sec:rfc_architecture}{{2}{2}}
\newlabel{2cycle}{{2}{3}}
\citation{antonio00}
\citation{antonio00}
\newlabel{rfc_diagram}{{3}{4}}
\citation{marssx86}
\citation{antonio00}
\citation{spec_website}
\citation{spec_art}
\@writefile{toc}{\contentsline {section}{\numberline {3}Performance Evaluation}{5}}
\newlabel{sec:performance}{{3}{5}}
\@writefile{toc}{\contentsline {subsection}{\numberline {3.1}Experiment Platform}{5}}
\citation{spec_profile}
\citation{pinpoints}
\citation{simpoint}
\citation{spec_profile}
\newlabel{table:parameters}{{I}{6}}
\@writefile{toc}{\contentsline {subsection}{\numberline {3.2}Impact of process variations}{6}}
\newlabel{rf_rfc}{{4}{7}}
\@writefile{toc}{\contentsline {subsection}{\numberline {3.3}Impact of the register file cache size}{8}}
\newlabel{cache_size}{{5}{9}}
\@writefile{toc}{\contentsline {subsection}{\numberline {3.4}Usage of the buses}{9}}
\newlabel{bus0}{{6}{10}}
\newlabel{bus}{{7}{11}}
\newlabel{ports_usage}{{8}{12}}
\@writefile{toc}{\contentsline {subsection}{\numberline {3.5}Usage of the bypass network}{12}}
\newlabel{bypass_usage}{{9}{13}}
\newlabel{table:uops}{{II}{14}}
\newlabel{uops_usage}{{10}{14}}
\citation{mcpat}
\newlabel{uops_2operands}{{11}{15}}
\newlabel{iq_wait}{{12}{15}}
\@writefile{toc}{\contentsline {section}{\numberline {4}Power and Area Evaluation}{16}}
\newlabel{sec:power_area}{{4}{16}}
\newlabel{area}{{13}{16}}
\newlabel{energy_delay}{{14}{17}}
\citation{customization}
\citation{rfc}
\citation{partitioning}
\citation{survey}
\citation{mitigate}
\citation{nbti}
\citation{soft}
\@writefile{toc}{\contentsline {section}{\numberline {5}Related Works}{18}}
\newlabel{sec:related_works}{{5}{18}}
\@writefile{toc}{\contentsline {section}{\numberline {6}Conclusion}{19}}
\newlabel{sec:conclusion}{{6}{19}}
\bibstyle{ACM-Reference-Format-Journals}
\bibdata{rfc_taco_bib}
\bibcite{nbti}{\citeauthoryear {Amrouch, Ebi, and Henkel}{Amrouch et\nobreakspace  {}al\unhbox \voidb@x \hbox {.}}{2013}}
\bibcite{spec_website}{\citeauthoryear {Corporation}{Corporation}{2011}}
\bibcite{antonio00}{\citeauthoryear {Cruz, Gonz\'{a}lez, Valero, and Topham}{Cruz et\nobreakspace  {}al\unhbox \voidb@x \hbox {.}}{2000}}
\bibcite{soft}{\citeauthoryear {Esmaeeli, Hosseini, Vahdat, and Rashidian}{Esmaeeli et\nobreakspace  {}al\unhbox \voidb@x \hbox {.}}{2011}}
\bibcite{survey}{\citeauthoryear {Ghosh and Roy}{Ghosh and Roy}{2010}}
\bibcite{partitioning}{\citeauthoryear {Guan and Fei}{Guan and Fei}{2010}}
\bibcite{jaksic}{\citeauthoryear {Jaksic and Canal}{Jaksic and Canal}{2013}}
\bibcite{spec_art}{\citeauthoryear {L.Henning}{L.Henning}{2006}}
\bibcite{mcpat}{\citeauthoryear {Li, Ahn, Strong, Brockman, Tullsen, and Jouppi}{Li et\nobreakspace  {}al\unhbox \voidb@x \hbox {.}}{2009}}
\bibcite{mitigate}{\citeauthoryear {Liang and Brooks}{Liang and Brooks}{2006}}
\bibcite{spec_profile}{\citeauthoryear {Nair and John}{Nair and John}{2008}}
\bibcite{customization}{\citeauthoryear {Nalluri, Garg, and Panda}{Nalluri et\nobreakspace  {}al\unhbox \voidb@x \hbox {.}}{2007}}
\bibcite{marssx86}{\citeauthoryear {Patel, Afram, Chen, and Ghose}{Patel et\nobreakspace  {}al\unhbox \voidb@x \hbox {.}}{2011}}
\bibcite{pinpoints}{\citeauthoryear {Patil, Cohn, Charney, Kapoor, Sun, and Karunanidhi}{Patil et\nobreakspace  {}al\unhbox \voidb@x \hbox {.}}{2004}}
\bibcite{simpoint}{\citeauthoryear {Sherwood, Perelman, Hamerly, and Calder}{Sherwood et\nobreakspace  {}al\unhbox \voidb@x \hbox {.}}{2002}}
\bibcite{rfc}{\citeauthoryear {Zeng and Ghose}{Zeng and Ghose}{2006}}
\lastpage{20}
