\relax 
\providecommand\hyper@newdestlabel[2]{}
\citation{survey}
\citation{jaksic}
\@writefile{toc}{\contentsline {chapter}{\numberline {1}Introduction}{1}{chapter.1}}
\@writefile{lof}{\addvspace {10\p@ }}
\@writefile{lot}{\addvspace {10\p@ }}
\@writefile{toc}{\contentsline {section}{\numberline {1.1}Motivation}{1}{section.1.1}}
\newlabel{section1.1}{{1.1}{1}{Motivation}{section.1.1}{}}
\citation{antonio00}
\citation{antonio00}
\citation{antonio00}
\citation{mcpat}
\@writefile{toc}{\contentsline {section}{\numberline {1.2}Objectives and Contributions }{2}{section.1.2}}
\newlabel{section1.2}{{1.2}{2}{Objectives and Contributions}{section.1.2}{}}
\citation{avf}
\citation{antonio00}
\@writefile{toc}{\contentsline {section}{\numberline {1.3}Organization}{3}{section.1.3}}
\newlabel{section1.3}{{1.3}{3}{Organization}{section.1.3}{}}
\@setckpt{Chapter1/chapter1}{
\setcounter{page}{4}
\setcounter{equation}{0}
\setcounter{enumi}{0}
\setcounter{enumii}{0}
\setcounter{enumiii}{0}
\setcounter{enumiv}{0}
\setcounter{footnote}{0}
\setcounter{mpfootnote}{0}
\setcounter{part}{0}
\setcounter{chapter}{1}
\setcounter{section}{3}
\setcounter{subsection}{0}
\setcounter{subsubsection}{0}
\setcounter{paragraph}{0}
\setcounter{subparagraph}{0}
\setcounter{figure}{0}
\setcounter{table}{0}
\setcounter{@pps}{0}
\setcounter{@ppsavesec}{0}
\setcounter{@ppsaveapp}{0}
\setcounter{NAT@ctr}{0}
\setcounter{Item}{0}
\setcounter{Hfootnote}{0}
\setcounter{bookmark@seq@number}{7}
\setcounter{ContinuedFloat}{0}
\setcounter{subfigure}{0}
\setcounter{subtable}{0}
\setcounter{parentequation}{0}
\setcounter{section@level}{1}
}
